fichier.vcd
$date   Date text. For example: November 11, 2009.  $end
$version
   VCD generator tool version info text.
$end
$comment
   Any comment text.
$end
$timescale 1ps $end
$scope module logic $end
$var wire 1 # in1 $end
$var wire 1 $ in2 $end
$var wire 1 % in3 $end
$var wire 1 + in4 $end
$var wire 1 - in5 $end
$var wire 1 * in6 $end
$var wire 1 / in7 $end
$upscope $end
$enddefinitions $end
$dumpvars
0#
0$
0%
0+
0-
0*
0/
$end
#0
1#
0%
0$
1+
0-
0*
0/
#1
1#
1$
0%
0+
0-
0*
1/
#2
0#
0$
1%
1+
0-
0*
0/
#3
0#
0$
1%
1+
1-
0*
0/
#4
0#
0$
1%
1+
1-
1*
0/
#5
0#
0$
1+
1-
1*
1%
1/
#6
0#
0$
0%
0+
0-
0*
0/
#7
0#
0$
0%
0+
1-
0*
1/
#9
1#
1$
1%
1+
1-
1*
1/
