ThreeInputs.vcd
$date   Date text. For example: December 12, 2019.  $end
$version
   VCD generator tool version info text.
$end
$comment
   Any comment text.
$end
$timescale 1ps $end
$scope module logic $end
$var wire 1 # I3 $end
$var wire 1 $ I2 $end
$var wire 1 % I1 $end
$upscope $end
$enddefinitions $end
$dumpvars
0#
0$
0%
$end
#0
0#
0$
0%

#1
0#
0$
1%

#2
0#
1$
0%

#3
0#
1$
1%

#4
1#
0$
0%

#5
1#
0$
1%

#6
1#
1$
0%

#7
1#
1$
1%